<?xml version="1.0" encoding="UTF-8"?>
<svg width="10px" height="14px" viewBox="0 0 10 14" version="1.1" xmlns="http://www.w3.org/2000/svg" xmlns:xlink="http://www.w3.org/1999/xlink">
    <!-- Generator: Sketch 50.2 (55047) - http://www.bohemiancoding.com/sketch -->
    <title>Group 2</title>
    <desc>Created with Sketch.</desc>
    <defs></defs>
    <g id="Page-1" stroke="none" stroke-width="1" fill="none" fill-rule="evenodd">
        <g id="4a" transform="translate(-59.000000, -90.000000)" fill="#FFFFFF" fill-rule="nonzero">
            <g id="Group-2" transform="translate(59.000000, 90.000000)">
                <g id="Icon-/-Whatshot-/-Filled-Copy-3">
                    <path d="M5,0 C2.23571429,0 0,2.191 0,4.9 C0,8.575 5,14 5,14 C5,14 10,8.575 10,4.9 C10,2.191 7.76428571,0 5,0 Z M5,7 C3.896,7 3,6.104 3,5 C3,3.896 3.896,3 5,3 C6.104,3 7,3.896 7,5 C7,6.104 6.104,7 5,7 Z" id="Shape"></path>
                </g>
            </g>
        </g>
    </g>
</svg>