<?xml version="1.0" encoding="UTF-8"?>
<svg width="10px" height="18px" viewBox="0 0 10 18" version="1.1" xmlns="http://www.w3.org/2000/svg" xmlns:xlink="http://www.w3.org/1999/xlink">
    <!-- Generator: Sketch 50.2 (55047) - http://www.bohemiancoding.com/sketch -->
    <title>Group 12</title>
    <desc>Created with Sketch.</desc>
    <defs></defs>
    <g id="Page-1" stroke="none" stroke-width="1" fill="none" fill-rule="evenodd" opacity="0.870000005">
        <g id="1a-copy-2" transform="translate(-217.000000, -43.000000)" fill="#FFFFFF" fill-rule="nonzero">
            <g id="deck" transform="translate(116.000000, 32.000000)">
                <g id="Group-2" transform="translate(16.000000, 10.000000)">
                    <g id="Group-11-Copy" transform="translate(26.000000, 1.000000)">
                        <g id="Group-12" transform="translate(59.000000, 0.000000)">
                            <path d="M4.59,2.83 L7.76,6 L9.17,4.59 L4.59,0 L0,4.59 L1.42,6 L4.59,2.83 Z M4.59,15.17 L1.42,12 L0.01,13.41 L4.59,18 L9.18,13.41 L7.76,12 L4.59,15.17 Z" id="icon/navigation/unfold_more_24px"></path>
                        </g>
                    </g>
                </g>
            </g>
        </g>
    </g>
</svg>