<?xml version="1.0" encoding="UTF-8"?>
<svg width="22px" height="19px" viewBox="0 0 22 19" version="1.1" xmlns="http://www.w3.org/2000/svg" xmlns:xlink="http://www.w3.org/1999/xlink">
    <!-- Generator: Sketch 49.2 (51160) - http://www.bohemiancoding.com/sketch -->
    <title>icon-cabin</title>
    <desc>Created with Sketch.</desc>
    <defs></defs>
    <g id="Page-1" stroke="none" stroke-width="1" fill="none" fill-rule="evenodd" opacity="0.870000005">
        <g id="Artboard-2" transform="translate(-358.000000, -1261.000000)" fill="#FFFFFF" fill-rule="nonzero">
            <g id="icon-cabin" transform="translate(358.000000, 1261.000000)">
                <polygon id="icon/action/home_24px" points="8.8 19 8.8 12.2941176 13.2 12.2941176 13.2 19 18.7 19 18.7 10.0588235 22 10.0588235 11 0 0 10.0588235 3.3 10.0588235 3.3 19"></polygon>
            </g>
        </g>
    </g>
</svg>