<?xml version="1.0" encoding="UTF-8"?>
<svg width="80px" height="80px" viewBox="0 0 80 80" version="1.1" xmlns="http://www.w3.org/2000/svg" xmlns:xlink="http://www.w3.org/1999/xlink">
    <!-- Generator: Sketch 49.2 (51160) - http://www.bohemiancoding.com/sketch -->
    <title>icon-theatre</title>
    <desc>Created with Sketch.</desc>
    <defs>
        <linearGradient x1="96.4279263%" y1="96.4279263%" x2="3.33066907e-14%" y2="-1.11022302e-14%" id="linearGradient-1">
            <stop stop-color="#4C35BC" offset="0%"></stop>
            <stop stop-color="#5791F4" offset="100%"></stop>
        </linearGradient>
        <circle id="path-2" cx="28" cy="28" r="28"></circle>
        <filter x="-41.1%" y="-25.0%" width="182.1%" height="182.1%" filterUnits="objectBoundingBox" id="filter-3">
            <feOffset dx="0" dy="1" in="SourceAlpha" result="shadowOffsetOuter1"></feOffset>
            <feGaussianBlur stdDeviation="0.5" in="shadowOffsetOuter1" result="shadowBlurOuter1"></feGaussianBlur>
            <feColorMatrix values="0 0 0 0 0   0 0 0 0 0   0 0 0 0 0  0 0 0 0.5 0" type="matrix" in="shadowBlurOuter1" result="shadowMatrixOuter1"></feColorMatrix>
            <feOffset dx="0" dy="8" in="SourceAlpha" result="shadowOffsetOuter2"></feOffset>
            <feGaussianBlur stdDeviation="6" in="shadowOffsetOuter2" result="shadowBlurOuter2"></feGaussianBlur>
            <feColorMatrix values="0 0 0 0 0.329411765   0 0 0 0 0.470588235   0 0 0 0 0.898039216  0 0 0 0.203294837 0" type="matrix" in="shadowBlurOuter2" result="shadowMatrixOuter2"></feColorMatrix>
            <feMerge>
                <feMergeNode in="shadowMatrixOuter1"></feMergeNode>
                <feMergeNode in="shadowMatrixOuter2"></feMergeNode>
            </feMerge>
        </filter>
        <filter x="-24.6%" y="-8.5%" width="149.1%" height="149.1%" filterUnits="objectBoundingBox" id="filter-4">
            <feGaussianBlur stdDeviation="0.5" in="SourceAlpha" result="shadowBlurInner1"></feGaussianBlur>
            <feOffset dx="0" dy="0.5" in="shadowBlurInner1" result="shadowOffsetInner1"></feOffset>
            <feComposite in="shadowOffsetInner1" in2="SourceAlpha" operator="arithmetic" k2="-1" k3="1" result="shadowInnerInner1"></feComposite>
            <feColorMatrix values="0 0 0 0 1   0 0 0 0 1   0 0 0 0 1  0 0 0 0.501132246 0" type="matrix" in="shadowInnerInner1" result="shadowMatrixInner1"></feColorMatrix>
            <feGaussianBlur stdDeviation="0.5" in="SourceAlpha" result="shadowBlurInner2"></feGaussianBlur>
            <feOffset dx="0" dy="-0.5" in="shadowBlurInner2" result="shadowOffsetInner2"></feOffset>
            <feComposite in="shadowOffsetInner2" in2="SourceAlpha" operator="arithmetic" k2="-1" k3="1" result="shadowInnerInner2"></feComposite>
            <feColorMatrix values="0 0 0 0 0   0 0 0 0 0   0 0 0 0 0  0 0 0 0.101392663 0" type="matrix" in="shadowInnerInner2" result="shadowMatrixInner2"></feColorMatrix>
            <feMerge>
                <feMergeNode in="shadowMatrixInner1"></feMergeNode>
                <feMergeNode in="shadowMatrixInner2"></feMergeNode>
            </feMerge>
        </filter>
        <path d="M38.9989805,18.0497705 L38.000878,18.3262131 C37.9801122,18.3319836 35.8852293,18.9006776 32.2926293,18.9006776 C28.7000293,18.9006776 26.6051463,18.3319836 26.5854,18.3265137 L25.5853659,18.0463443 L25.5853659,23.0513443 C27.7321366,22.9190437 28.9761024,22.6004044 29.0342683,22.5851366 L30.0272732,22.3101366 L32.0213854,21.7578525 L32.0243902,26.4314098 C32.1125512,26.4203497 32.202,26.4142787 32.2926829,26.4142787 C33.6241659,26.4142787 34.7073171,27.6277049 34.7073171,29.1191967 L32.0243902,29.1191967 L32.0243902,33.9730219 C32.4536585,33.9730219 34.0720537,33.5719727 35.6533707,32.5252295 C37.8428,31.0759945 39,28.9627923 39,26.4142787 L39,19.2011639 L38.9989805,18.0497705 Z M35.2439024,25.2120929 C34.7993951,25.2120929 34.4390244,24.8083989 34.4390244,24.3104536 C34.4390244,23.8125082 34.7993951,23.4088142 35.2439024,23.4088142 C35.6884098,23.4088142 36.0487805,23.8125082 36.0487805,24.3104536 C36.0487805,24.8083989 35.6884098,25.2120929 35.2439024,25.2120929 Z" id="path-5"></path>
        <filter x="-13.0%" y="-7.8%" width="126.1%" height="122.0%" filterUnits="objectBoundingBox" id="filter-6">
            <feOffset dx="0" dy="0.5" in="SourceAlpha" result="shadowOffsetOuter1"></feOffset>
            <feGaussianBlur stdDeviation="0.5" in="shadowOffsetOuter1" result="shadowBlurOuter1"></feGaussianBlur>
            <feColorMatrix values="0 0 0 0 1   0 0 0 0 1   0 0 0 0 1  0 0 0 0.370244565 0" type="matrix" in="shadowBlurOuter1"></feColorMatrix>
        </filter>
        <filter x="-14.9%" y="-9.4%" width="129.8%" height="125.1%" filterUnits="objectBoundingBox" id="filter-7">
            <feGaussianBlur stdDeviation="0.5" in="SourceAlpha" result="shadowBlurInner1"></feGaussianBlur>
            <feOffset dx="0" dy="1" in="shadowBlurInner1" result="shadowOffsetInner1"></feOffset>
            <feComposite in="shadowOffsetInner1" in2="SourceAlpha" operator="arithmetic" k2="-1" k3="1" result="shadowInnerInner1"></feComposite>
            <feColorMatrix values="0 0 0 0 0   0 0 0 0 0   0 0 0 0 0  0 0 0 0.699926404 0" type="matrix" in="shadowInnerInner1"></feColorMatrix>
        </filter>
        <path d="M30.4146341,25.2120929 L30.4136146,24.0606995 L29.4155659,24.3371421 C29.3948,24.3429126 27.2999171,24.9116066 23.7073171,24.9116066 C20.1147171,24.9116066 18.0198341,24.3429126 18.0000878,24.3374426 L17,24.0572732 L17,32.4252077 C17,34.9737213 18.1572,37.0869235 20.3466293,38.5361585 C21.9279463,39.5829016 23.4972976,39.9108579 23.5632976,39.9243224 L23.7073171,39.9536557 L23.8513366,39.9243224 C23.9173366,39.9108579 25.4867415,39.5829016 27.0680049,38.5361585 C29.2574341,37.0869235 30.4146341,34.9737213 30.4146341,32.4252077 L30.4146341,25.2120929 Z M19.9512195,30.3213825 C19.9512195,29.8234372 20.3115902,29.4197432 20.7560976,29.4197432 C21.2006049,29.4197432 21.5609756,29.8234372 21.5609756,30.3213825 C21.5609756,30.8193279 21.2006049,31.2230219 20.7560976,31.2230219 C20.3115902,31.2230219 19.9512195,30.8193279 19.9512195,30.3213825 Z M23.7073171,36.031765 C22.3758878,36.031765 21.2926829,34.8183388 21.2926829,33.326847 L26.1219512,33.326847 C26.1219512,34.8183388 25.0388,36.031765 23.7073171,36.031765 Z M26.6585366,31.2230219 C26.2140293,31.2230219 25.8536585,30.8193279 25.8536585,30.3213825 C25.8536585,29.8234372 26.2140293,29.4197432 26.6585366,29.4197432 C27.1030439,29.4197432 27.4634146,29.8234372 27.4634146,30.3213825 C27.4634146,30.8193279 27.1030439,31.2230219 26.6585366,31.2230219 Z" id="path-8"></path>
        <filter x="-13.0%" y="-7.9%" width="126.1%" height="122.0%" filterUnits="objectBoundingBox" id="filter-9">
            <feOffset dx="0" dy="0.5" in="SourceAlpha" result="shadowOffsetOuter1"></feOffset>
            <feGaussianBlur stdDeviation="0.5" in="shadowOffsetOuter1" result="shadowBlurOuter1"></feGaussianBlur>
            <feColorMatrix values="0 0 0 0 1   0 0 0 0 1   0 0 0 0 1  0 0 0 0.370244565 0" type="matrix" in="shadowBlurOuter1"></feColorMatrix>
        </filter>
        <filter x="-14.9%" y="-9.4%" width="129.8%" height="125.2%" filterUnits="objectBoundingBox" id="filter-10">
            <feGaussianBlur stdDeviation="0.5" in="SourceAlpha" result="shadowBlurInner1"></feGaussianBlur>
            <feOffset dx="0" dy="1" in="shadowBlurInner1" result="shadowOffsetInner1"></feOffset>
            <feComposite in="shadowOffsetInner1" in2="SourceAlpha" operator="arithmetic" k2="-1" k3="1" result="shadowInnerInner1"></feComposite>
            <feColorMatrix values="0 0 0 0 0   0 0 0 0 0   0 0 0 0 0  0 0 0 0.699926404 0" type="matrix" in="shadowInnerInner1"></feColorMatrix>
        </filter>
    </defs>
    <g id="Page-1" stroke="none" stroke-width="1" fill="none" fill-rule="evenodd">
        <g id="Artboard-2" transform="translate(-329.000000, -1981.000000)">
            <g id="icon-theatre" transform="translate(341.000000, 1985.000000)">
                <g id="Oval-5">
                    <use fill="black" fill-opacity="1" filter="url(#filter-3)" xlink:href="#path-2"></use>
                    <use fill="url(#linearGradient-1)" fill-rule="evenodd" xlink:href="#path-2"></use>
                    <use fill="black" fill-opacity="1" filter="url(#filter-4)" xlink:href="#path-2"></use>
                </g>
                <g id="XMLID_834_" fill-rule="nonzero">
                    <use fill="black" fill-opacity="1" filter="url(#filter-6)" xlink:href="#path-5"></use>
                    <use fill="#33343A" fill-rule="evenodd" xlink:href="#path-5"></use>
                    <use fill="black" fill-opacity="1" filter="url(#filter-7)" xlink:href="#path-5"></use>
                </g>
                <g id="XMLID_837_" fill-rule="nonzero">
                    <use fill="black" fill-opacity="1" filter="url(#filter-9)" xlink:href="#path-8"></use>
                    <use fill="#33343A" fill-rule="evenodd" xlink:href="#path-8"></use>
                    <use fill="black" fill-opacity="1" filter="url(#filter-10)" xlink:href="#path-8"></use>
                </g>
            </g>
        </g>
    </g>
</svg>