<svg xmlns="http://www.w3.org/2000/svg" width="270" height="270" viewBox="0 0 270 270">
  <title>category-8-tv</title>
  <circle cx="135" cy="135" r="135" fill="#903cff"/>
  <g>
    <path d="M660.77,310.82a10.61,10.61,0,1,0,10.61,10.61A10.59,10.59,0,0,0,660.77,310.82ZM629,226v10.61h10.61l19.08,40.26-7.15,12.94a10.63,10.63,0,0,0,9.27,15.75h63.62V294.91H660.77l5.84-10.61H706.1a10.54,10.54,0,0,0,9.28-5.46l19-34.42a5.28,5.28,0,0,0-4.61-7.85H651.28l-5-10.61Zm84.83,84.86a10.61,10.61,0,1,0,10.6,10.61A10.59,10.59,0,0,0,713.79,310.82Z" transform="translate(-548 -144)"/>
    <path d="M660.77,310.82a10.61,10.61,0,1,0,10.61,10.61A10.59,10.59,0,0,0,660.77,310.82ZM629,226v10.61h10.61l19.08,40.26-7.15,12.94a10.63,10.63,0,0,0,9.27,15.75h63.62V294.91H660.77l5.84-10.61H706.1a10.54,10.54,0,0,0,9.28-5.46l19-34.42a5.28,5.28,0,0,0-4.61-7.85H651.28l-5-10.61Zm84.83,84.86a10.61,10.61,0,1,0,10.6,10.61A10.59,10.59,0,0,0,713.79,310.82Z" transform="translate(-548 -144)" fill="#33343a"/>
    <path d="M660.77,310.82a10.61,10.61,0,1,0,10.61,10.61A10.59,10.59,0,0,0,660.77,310.82ZM629,226v10.61h10.61l19.08,40.26-7.15,12.94a10.63,10.63,0,0,0,9.27,15.75h63.62V294.91H660.77l5.84-10.61H706.1a10.54,10.54,0,0,0,9.28-5.46l19-34.42a5.28,5.28,0,0,0-4.61-7.85H651.28l-5-10.61Zm84.83,84.86a10.61,10.61,0,1,0,10.6,10.61A10.59,10.59,0,0,0,713.79,310.82Z" transform="translate(-548 -144)"/>
  </g>
</svg>
