<?xml version="1.0" encoding="UTF-8"?>
<svg width="22px" height="23px" viewBox="0 0 22 23" version="1.1" xmlns="http://www.w3.org/2000/svg" xmlns:xlink="http://www.w3.org/1999/xlink">
    <!-- Generator: Sketch 50.2 (55047) - http://www.bohemiancoding.com/sketch -->
    <title>icon-crew-engineering</title>
    <desc>Created with Sketch.</desc>
    <defs>
        <path d="M11.0887827,1.89628241 C9.07878271,-0.113717589 6.06878271,-0.523717589 3.64878271,0.656282411 L7.98878271,4.99628241 L4.98878271,7.99628241 L0.648782715,3.65628241 C-0.521217285,6.08628241 -0.111217285,9.07628241 1.89878271,11.0862824 C3.75878271,12.9462824 6.47878271,13.4362824 8.78878271,12.5662824 L17.8987827,21.6762824 C18.2887827,22.0662824 18.9187827,22.0662824 19.3087827,21.6762824 L21.6087827,19.3762824 C21.9987827,18.9862824 21.9987827,18.3562824 21.6087827,17.9662824 L12.5387827,8.88628241 C13.4587827,6.54628241 12.9787827,3.78628241 11.0887827,1.89628241 Z" id="path-1"></path>
        <filter x="-2.3%" y="-2.3%" width="104.6%" height="109.1%" filterUnits="objectBoundingBox" id="filter-2">
            <feOffset dx="0" dy="1" in="SourceAlpha" result="shadowOffsetOuter1"></feOffset>
            <feColorMatrix values="0 0 0 0 0   0 0 0 0 0   0 0 0 0 0  0 0 0 0.601449275 0" type="matrix" in="shadowOffsetOuter1"></feColorMatrix>
        </filter>
    </defs>
    <g id="Page-1" stroke="none" stroke-width="1" fill="none" fill-rule="evenodd">
        <g id="Artboard-2" transform="translate(-1771.000000, -1934.000000)" fill-rule="nonzero">
            <g id="Group-5-Copy-4" transform="translate(1673.000000, 1934.000000)">
                <g id="icon-crew-engineering" transform="translate(98.000000, 0.000000)">
                    <g id="icon/action/build_24px">
                        <use fill="black" fill-opacity="1" filter="url(#filter-2)" xlink:href="#path-1"></use>
                        <use fill="#FFFFFF" fill-rule="evenodd" xlink:href="#path-1"></use>
                    </g>
                </g>
            </g>
        </g>
    </g>
</svg>